<?xml version="1.0" encoding="UTF-8" standalone="no"?>
<svg
   xmlns:dc="http://purl.org/dc/elements/1.1/"
   xmlns:cc="http://creativecommons.org/ns#"
   xmlns:rdf="http://www.w3.org/1999/02/22-rdf-syntax-ns#"
   xmlns:svg="http://www.w3.org/2000/svg"
   xmlns="http://www.w3.org/2000/svg"
   xmlns:sodipodi="http://sodipodi.sourceforge.net/DTD/sodipodi-0.dtd"
   xmlns:inkscape="http://www.inkscape.org/namespaces/inkscape"
   id="svg8"
   version="1.1"
   viewBox="0 0 55.562499 55.562499"
   height="210"
   width="210"
   sodipodi:docname="atom.svg"
   inkscape:version="0.92.4 5da689c313, 2019-01-14">
  <sodipodi:namedview
     pagecolor="#ffffff"
     bordercolor="#666666"
     borderopacity="1"
     objecttolerance="10"
     gridtolerance="10"
     guidetolerance="10"
     inkscape:pageopacity="0"
     inkscape:pageshadow="2"
     inkscape:window-width="741"
     inkscape:window-height="513"
     id="namedview17"
     showgrid="false"
     inkscape:zoom="1.1238095"
     inkscape:cx="105"
     inkscape:cy="105"
     inkscape:window-x="0"
     inkscape:window-y="0"
     inkscape:window-maximized="0"
     inkscape:current-layer="svg8" />
  <defs
     id="defs2">
    <filter
       id="filter1128"
       style="color-interpolation-filters:sRGB">
      <feFlood
         id="feFlood1118"
         result="flood"
         flood-color="rgb(0,0,0)"
         flood-opacity="0.498039" />
      <feComposite
         id="feComposite1120"
         result="composite1"
         operator="in"
         in2="SourceGraphic"
         in="flood" />
      <feGaussianBlur
         id="feGaussianBlur1122"
         result="blur"
         stdDeviation="6"
         in="composite1" />
      <feOffset
         id="feOffset1124"
         result="offset"
         dy="6"
         dx="6" />
      <feComposite
         id="feComposite1126"
         result="composite2"
         operator="over"
         in2="offset"
         in="SourceGraphic" />
    </filter>
  </defs>
  <metadata
     id="metadata5">
    <rdf:RDF>
      <cc:Work
         rdf:about="">
        <dc:format>image/svg+xml</dc:format>
        <dc:type
           rdf:resource="http://purl.org/dc/dcmitype/StillImage" />
        <dc:title></dc:title>
      </cc:Work>
    </rdf:RDF>
  </metadata>
  <path
     style="fill:#2cbbc1;fill-opacity:1;stroke-width:0.32155347"
     d="M 28.472035,0.00501115 C 27.546758,0.06213287 26.634257,0.60938733 25.642113,1.6523448 l -1.249788,1.3138476 0.857265,0.4490443 c 0.799887,0.419091 0.931572,0.3834744 1.977052,-0.5344569 0.616106,-0.5409514 1.197295,-0.9835016 1.29124,-0.9835016 0.368217,0 1.597072,0.7750773 1.995892,1.2585803 1.259413,1.5267826 3.598634,8.0639385 3.598634,10.0567115 0,0.679072 0.916135,0.777733 1.6712,0.180245 0.459548,-0.363636 0.433599,-0.692952 -0.275079,-3.4548155 C 34.51944,6.0833561 32.84932,2.5878191 31.38046,1.2981337 30.335807,0.38091908 29.397311,-0.05211026 28.472035,0.00501115 Z M 23.657524,4.2210044 c -0.446201,0.017345 -0.91718,0.1376622 -1.394237,0.3843571 -1.92961,0.9978387 -2.259244,3.1694938 -0.715958,4.7127683 1.34756,1.3474982 3.179296,1.3264802 4.337203,-0.049615 1.877731,-2.2315536 0.182472,-5.1411641 -2.227008,-5.0475104 z m -0.02701,0.9062535 c 0.592135,-0.027933 1.17651,0.1043724 1.431289,0.4113624 0.281286,0.3388798 0.174524,0.3990051 -0.524408,0.2964322 -0.61709,-0.090566 -1.083873,0.093599 -1.573853,0.6198696 -0.383215,0.4115925 -0.753047,1.1820767 -0.82147,1.7126491 L 22.01772,9.1322317 21.642785,8.2510998 C 21.240052,7.3033322 21.385382,6.5690229 22.152747,5.6755317 22.438299,5.3430505 23.038379,5.1551903 23.630514,5.1272579 Z m -2.022272,5.8199921 -0.332856,1.664919 c -0.598083,2.994829 -0.984841,5.819628 -0.987272,7.211716 -0.0026,1.512296 0.145297,1.610357 1.202687,0.796347 0.585661,-0.450859 0.786983,-1.07402 1.063261,-3.289014 0.18745,-1.502914 0.473736,-3.311377 0.6362,-4.018791 0.40154,-1.74842 0.427528,-1.664859 -0.635573,-2.035459 z m 14.945957,6.788422 c -0.120264,-0.0053 -0.275365,0.03096 -0.479816,0.08227 -0.45949,0.115322 -0.866596,0.241071 -0.904999,0.279475 -0.03839,0.03838 0.02003,2.775669 0.130004,6.083139 0.109997,3.307482 0.254709,6.013427 0.321554,6.013427 0.06689,0 0.478507,-0.233759 0.914417,-0.519384 0.767899,-0.503143 0.792578,-0.636318 0.792578,-4.293241 0,-2.075974 -0.09416,-4.674549 -0.209135,-5.774146 -0.153413,-1.467801 -0.203807,-1.855777 -0.564603,-1.871542 z m -14.661456,7.598585 -0.964661,0.570255 -0.96466,0.569627 0.0026,3.066063 c 9.65e-4,1.686196 0.09591,4.26946 0.210393,5.74086 l 0.207878,2.675426 0.834659,-0.205996 c 0.459185,-0.113292 0.920048,-0.304477 1.024322,-0.424551 0.104276,-0.120122 0.07979,-1.448506 -0.05464,-2.95176 -0.134412,-1.503266 -0.255956,-4.15223 -0.270053,-5.886565 z m 15.494231,8.705809 -1.09906,0.648132 c -1.090349,0.643317 -1.102722,0.677211 -1.630379,4.427641 -0.987786,7.020806 -2.628079,11.843604 -4.623585,13.595684 -0.598849,0.525795 -1.250792,0.955866 -1.448875,0.955866 -0.198087,0 -0.892723,-0.559811 -1.543708,-1.244135 -1.303613,-1.370393 -2.500834,-4.241226 -3.42467,-8.212174 -0.556107,-2.390268 -0.604533,-2.468858 -1.390468,-2.271598 -0.44776,0.112379 -0.875494,0.266297 -0.950843,0.34165 -0.220181,0.220165 0.820389,4.634441 1.54873,6.569865 0.99343,2.639797 2.626105,5.182365 3.859899,6.011542 1.331312,0.894742 2.442376,0.929338 3.773858,0.117441 2.983209,-1.819079 5.466249,-8.334505 6.382711,-16.747157 0.105962,-0.972706 0.272057,-2.313877 0.369282,-2.98065 z"
     id="path1260"
     inkscape:connector-curvature="0" />
  <path
     style="fill:#ff0066;fill-opacity:1;stroke-width:0.32155347"
     d="m 47.612631,11.856016 c -3.81155,-0.03132 -9.253769,1.414292 -15.205965,4.119276 l -2.509622,1.14051 0.994806,0.629918 0.994176,0.629919 3.283994,-1.305683 c 5.458849,-2.170721 8.730865,-3.018525 11.84849,-3.069203 2.319476,-0.03769 2.889098,0.05613 3.456701,0.567742 0.373759,0.336912 0.679532,0.899902 0.679532,1.251044 0,1.361986 -1.574486,3.713827 -4.584022,6.847457 -3.131465,3.260619 -3.135703,3.266971 -2.411651,3.771973 0.398929,0.278247 0.807369,0.512802 0.907511,0.522525 0.29271,0.02713 3.910029,-3.549903 5.185678,-5.127899 3.505299,-4.33613 3.744107,-8.182236 0.586583,-9.445634 -0.86669,-0.34678 -1.955695,-0.521505 -3.226211,-0.531945 z m -22.246854,7.896273 c -0.560954,0.03441 -1.318264,0.478836 -3.362495,1.754728 -1.742029,1.087286 -3.866729,2.48464 -4.721559,3.105001 -1.499732,1.088343 -1.535058,1.149521 -0.99418,1.747191 0.308303,0.340666 0.696601,0.619241 0.862918,0.619241 0.16633,0 1.584265,-0.856966 3.150848,-1.904827 1.566573,-1.047862 3.79601,-2.435749 4.954561,-3.083648 1.158554,-0.647912 2.036739,-1.290596 1.951302,-1.428778 -0.0854,-0.138169 -0.578436,-0.426864 -1.095919,-0.641223 -0.276031,-0.114335 -0.490497,-0.183326 -0.745476,-0.167685 z m -13.116495,8.833929 c -0.136355,0 -1.549486,1.361358 -3.1401694,3.02524 -5.4666698,5.71824 -6.3816535,9.947686 -2.5165323,11.630566 0.5455702,0.237544 1.3895902,0.437355 1.8759366,0.444647 0.7588599,0.01081 0.8842721,-0.115781 0.8842721,-0.894947 0,-0.77997 -0.1683493,-0.94994 -1.1951467,-1.205827 -0.7636832,-0.190319 -1.3653258,-0.602488 -1.6661745,-1.14051 -0.4349171,-0.777805 -0.4005527,-0.984846 0.4471587,-2.717504 0.6046589,-1.235871 1.9425593,-2.923111 3.9220745,-4.945769 2.99456,-3.059824 3.002342,-3.072332 2.320584,-3.633178 -0.376227,-0.309493 -0.795655,-0.562718 -0.932003,-0.562718 z m 27.940612,0 c -0.139808,0 -1.986152,1.121413 -4.102318,2.492039 -2.116163,1.370614 -4.39508,2.798089 -5.064468,3.172201 l -1.217131,0.680161 0.947705,0.513104 c 0.521019,0.282015 1.059712,0.518372 1.197661,0.525664 0.373591,0.01918 5.734376,-3.292995 7.803325,-4.821418 1.73618,-1.2826 1.782133,-1.353882 1.24602,-1.946278 -0.30609,-0.338236 -0.67097,-0.615473 -0.810794,-0.615473 z m -14.932767,8.633585 -3.530809,1.426266 c -1.941996,0.784222 -3.778504,1.51182 -4.081594,1.617188 -0.46277,0.160836 -0.497321,0.345628 -0.215415,1.154327 l 0.335371,0.963403 2.305513,-0.822096 c 1.268004,-0.452038 3.463115,-1.363615 4.87794,-2.026038 l 2.572428,-1.204569 -1.131717,-0.553926 z m -11.62868,2.016618 c -1.657473,-0.07643 -3.310997,1.324634 -3.310997,3.297179 0,0.988323 1.388226,2.686316 2.342568,2.86572 3.363836,0.632367 5.248152,-3.450941 2.566148,-5.560614 -0.492324,-0.387261 -1.045229,-0.576809 -1.597719,-0.602285 z m 0.192177,0.928863 c 0.387652,0.01004 0.709552,0.110908 0.837798,0.318413 0.109305,0.176853 -0.08314,0.321553 -0.427692,0.321553 -0.344554,0 -0.943335,0.257137 -1.330804,0.570883 -0.387469,0.313747 -0.807639,1.073422 -0.933885,1.688156 -0.181401,0.883368 -0.27714,0.993693 -0.456583,0.528177 -0.403704,-1.04729 -0.242532,-2.128913 0.415759,-2.787216 0.420457,-0.420455 1.249325,-0.656705 1.895407,-0.639966 z"
     id="path1258"
     inkscape:connector-curvature="0" />
  <path
     style="fill:#fecd16;fill-opacity:1;stroke-width:0.32155347"
     d="m 9.4024048,11.898094 c -0.9946743,-0.0017 -1.8249865,0.07898 -2.3563858,0.254354 -2.84516,0.938993 -3.5109751,3.724744 -1.6982044,7.108719 1.2140927,2.266402 6.4525044,7.565046 10.4360444,10.555998 1.68012,1.26149 3.09091,2.296215 3.135146,2.299861 0.04412,0.0035 0.08039,-0.552248 0.08039,-1.235343 0,-1.168203 -0.138532,-1.345018 -2.331263,-2.973742 C 11.633693,24.168449 7.2016573,19.295081 6.3991466,16.616515 6.0278906,15.377387 6.0509813,15.283361 6.895921,14.556563 c 0.6986393,-0.600939 1.2569944,-0.761806 2.6490477,-0.761806 2.0314433,0 5.7042563,0.70457 8.2655583,1.585786 l 1.767287,0.608566 0.155124,-1.016788 c 0.08519,-0.559132 0.132612,-1.043778 0.105511,-1.077078 -0.02704,-0.03328 -1.348171,-0.441041 -2.93606,-0.906254 -2.330269,-0.682696 -5.3117,-1.087128 -7.4999842,-1.090895 z m 14.4925152,3.508827 -0.158892,1.043165 c -0.08738,0.573582 -0.1394,1.062435 -0.116187,1.086499 0.02325,0.02407 1.778467,0.920045 3.90072,1.991496 2.122253,1.071451 4.437445,2.313762 5.144856,2.76021 0.707427,0.446436 1.322366,0.815392 1.366602,0.821469 0.04412,0.0055 0.08039,-0.552172 0.08039,-1.23974 v -1.250416 l -5.10843,-2.606341 z m 14.719237,8.282514 v 1.253557 c 0,1.023433 0.162519,1.352621 0.884272,1.790525 0.486346,0.29508 1.969512,1.463813 3.295923,2.597549 l 2.411651,2.061208 0.722869,-0.654411 c 0.691893,-0.626595 0.698822,-0.682147 0.160776,-1.283074 -0.620653,-0.693219 -5.196504,-4.301567 -6.591219,-5.197611 z m 10.117631,6.998813 c -0.682633,0.02235 -1.354141,0.262601 -1.882846,0.759293 -1.653116,1.553022 -1.208504,4.124751 0.869827,5.02867 1.270009,0.552375 1.010214,0.552497 2.332519,0 1.279975,-0.534814 2.202399,-2.257568 1.885358,-3.52076 -0.337426,-1.344402 -1.610879,-2.189012 -2.912194,-2.263435 -0.0976,-0.0056 -0.195145,-0.007 -0.292664,-0.0038 z m 0.348559,0.796976 c 0.301483,0.01015 0.612846,0.07144 0.922582,0.190294 0.776031,0.29779 0.606114,0.699053 -0.228604,0.539481 -1.075997,-0.205681 -2.235304,0.861772 -2.280393,2.100146 -0.02042,0.562353 -0.04425,1.022752 -0.05275,1.023068 -0.308303,0.01406 -0.788183,-1.003064 -0.788183,-1.671199 0,-1.312901 1.120924,-2.225761 2.427353,-2.18179 z m -25.900758,0.922582 v 1.104712 c 0,0.607575 0.214344,1.282556 0.47605,1.499745 0.261697,0.21719 2.396021,1.388684 4.742914,2.603202 2.346907,1.214518 4.444825,2.211471 4.662526,2.216332 0.365069,0.008 0.958673,-1.49044 0.688327,-1.73777 -0.06546,-0.05988 -1.566316,-0.842542 -3.334863,-1.739655 -1.768545,-0.897113 -4.119898,-2.152405 -5.225245,-2.789099 z m 28.646523,4.374258 c -0.0349,0.002 -0.069,0.01203 -0.101741,0.03077 -1.077516,0.616921 -1.168109,0.808936 -0.83403,1.767288 1.08347,3.108048 -1.848599,3.963425 -8.256766,2.40914 -1.768544,-0.428948 -3.61346,-0.93184 -4.099807,-1.117273 -0.85838,-0.327286 -0.884272,-0.304755 -0.884272,0.76683 0,1.085815 0.03549,1.114262 2.170486,1.737771 1.193774,0.348628 2.821626,0.773439 3.617477,0.943936 2.201931,0.471677 5.989583,0.437554 7.19162,-0.06469 1.439486,-0.601462 2.454986,-1.969803 2.454985,-3.307858 0,-1.41338 -0.734455,-3.1958 -1.257952,-3.16592 z"
     id="path1252"
     inkscape:connector-curvature="0" />
  <path
     style="fill:#efefef;fill-opacity:1;stroke-width:0.32155347"
     d="m 28.916055,23.737794 c -1.675364,-0.0065 -3.453488,1.035056 -4.094784,2.720016 -0.640499,1.682866 -0.01013,3.568274 1.541196,4.610399 1.424974,0.957247 3.485466,0.984591 4.65813,0.06217 2.341678,-1.841963 2.341678,-4.853521 0,-6.695472 -0.602643,-0.474043 -1.343013,-0.694151 -2.104542,-0.697118 z m -0.09484,1.046933 c 0.491906,0.0019 0.971198,0.14848 1.373513,0.475422 l 0.729148,0.592864 -1.342109,0.01759 c -1.827042,0.02336 -2.976428,1.288928 -2.804802,3.088672 0.06478,0.679097 0.08599,1.234715 0.0471,1.234715 -0.356188,0 -1.072056,-1.645738 -1.072056,-2.465034 0,-1.651538 1.593484,-2.949925 3.069202,-2.944224 z"
     id="path1236"
     inkscape:connector-curvature="0" />
</svg>
