<?xml version="1.0" encoding="UTF-8" standalone="no"?>
<!-- Created with Inkscape (http://www.inkscape.org/) -->

<svg
   xmlns:dc="http://purl.org/dc/elements/1.1/"
   xmlns:cc="http://creativecommons.org/ns#"
   xmlns:rdf="http://www.w3.org/1999/02/22-rdf-syntax-ns#"
   xmlns:svg="http://www.w3.org/2000/svg"
   xmlns="http://www.w3.org/2000/svg"
   xmlns:sodipodi="http://sodipodi.sourceforge.net/DTD/sodipodi-0.dtd"
   xmlns:inkscape="http://www.inkscape.org/namespaces/inkscape"
   width="210"
   height="210"
   viewBox="0 0 55.562499 55.562502"
   version="1.1"
   id="svg8"
   inkscape:version="0.92.4 5da689c313, 2019-01-14"
   sodipodi:docname="rotary_engine.svg">
  <defs
     id="defs2" />
  <sodipodi:namedview
     id="base"
     pagecolor="#ffffff"
     bordercolor="#666666"
     borderopacity="1.0"
     inkscape:pageopacity="0.0"
     inkscape:pageshadow="2"
     inkscape:zoom="1.4"
     inkscape:cx="21.428567"
     inkscape:cy="102.85714"
     inkscape:document-units="mm"
     inkscape:current-layer="layer1"
     showgrid="false"
     units="px"
     inkscape:snap-page="true"
     inkscape:snap-bbox="true"
     inkscape:bbox-nodes="true"
     inkscape:window-width="1920"
     inkscape:window-height="1048"
     inkscape:window-x="0"
     inkscape:window-y="0"
     inkscape:window-maximized="1" />
  <metadata
     id="metadata5">
    <rdf:RDF>
      <cc:Work
         rdf:about="">
        <dc:format>image/svg+xml</dc:format>
        <dc:type
           rdf:resource="http://purl.org/dc/dcmitype/StillImage" />
        <dc:title></dc:title>
      </cc:Work>
    </rdf:RDF>
  </metadata>
  <g
     inkscape:label="Layer 1"
     inkscape:groupmode="layer"
     id="layer1"
     transform="translate(0,-241.43748)">
    <path
       style="fill:#e31c25;stroke-width:0.12646878;fill-opacity:1"
       d="m 16.074262,241.43748 c -4.753137,0 -7.2315469,0.3052 -13.3358184,1.64263 -0.2118307,0.0464 -0.3269167,0.23107 -0.4859292,0.77943 -3.9020288,13.45618 -2.71121841,27.46213 3.3915693,39.88948 2.2961299,4.6757 4.8040693,8.38472 8.4848083,12.54841 0.711748,0.80514 1.375826,1.46387 1.475627,1.46387 0.347127,0 3.88247,-1.01582 5.560776,-1.59784 14.886464,-5.16245 26.819149,-16.70411 32.562373,-31.49551 0.700675,-1.80455 1.834832,-5.22727 1.834832,-5.53695 0,-0.22247 -3.460805,-3.677 -4.959527,-4.95048 -8.558683,-7.27239 -18.830862,-11.57637 -30.071483,-12.60011 -0.863219,-0.0786 -2.868905,-0.14293 -4.457228,-0.14293 z m 8.475245,10.71993 c 8.736984,0 15.436551,7.91119 14.132396,16.68812 -0.444665,2.99257 -1.675535,5.52336 -3.773029,7.75824 -2.34005,2.49331 -5.193352,4.00763 -8.404985,4.46083 -3.442178,0.48573 -7.052068,-0.3703 -10.03235,-2.37895 -1.159627,-0.78157 -3.000753,-2.64747 -3.762361,-3.81297 -1.561446,-2.3895 -2.32873,-4.77532 -2.439575,-7.58656 -0.168164,-4.26493 1.225565,-7.90988 4.157063,-10.87201 2.780667,-2.80972 6.221717,-4.2567 10.122841,-4.2567 z"
       id="path122"
       inkscape:connector-curvature="0" />
    <path
       style="fill:#efefef;stroke-width:0.12646878;fill-opacity:1"
       d="m 17.922699,264.90705 c -3.343033,-1.25793 -4.218154,-5.5328 -1.634548,-7.98461 2.10849,-2.00092 5.466816,-1.64115 7.090204,0.75957 0.599456,0.88649 0.836466,1.81966 0.767801,3.02305 -0.102324,1.79329 -1.106867,3.28743 -2.713698,4.0363 -0.972331,0.45317 -2.54809,0.52755 -3.509759,0.16569 z"
       id="path116"
       inkscape:connector-curvature="0" />
  </g>
</svg>
